<?xml version="1.0" encoding="UTF-8" standalone="no"?>
<svg
   xmlns:dc="http://purl.org/dc/elements/1.1/"
   xmlns:cc="http://creativecommons.org/ns#"
   xmlns:rdf="http://www.w3.org/1999/02/22-rdf-syntax-ns#"
   xmlns:svg="http://www.w3.org/2000/svg"
   xmlns="http://www.w3.org/2000/svg"
   xmlns:sodipodi="http://sodipodi.sourceforge.net/DTD/sodipodi-0.dtd"
   xmlns:inkscape="http://www.inkscape.org/namespaces/inkscape"
   viewBox="0 0 250 150"
   version="1.1"
   id="svg4"
   sodipodi:docname="blob-4.svg"
   width="250"
   height="150"
   inkscape:version="1.0.2 (e86c870879, 2021-01-15, custom)">
  <metadata
     id="metadata10">
    <rdf:RDF>
      <cc:Work
         rdf:about="">
        <dc:format>image/svg+xml</dc:format>
        <dc:type
           rdf:resource="http://purl.org/dc/dcmitype/StillImage" />
        <dc:title></dc:title>
      </cc:Work>
    </rdf:RDF>
  </metadata>
  <defs
     id="defs8" />
  <sodipodi:namedview
     pagecolor="#ffffff"
     bordercolor="#666666"
     borderopacity="1"
     objecttolerance="10"
     gridtolerance="10"
     guidetolerance="10"
     inkscape:pageopacity="0"
     inkscape:pageshadow="2"
     inkscape:window-width="1440"
     inkscape:window-height="845"
     id="namedview6"
     showgrid="false"
     inkscape:zoom="2.2733483"
     inkscape:cx="146.39742"
     inkscape:cy="75.329388"
     inkscape:window-x="0"
     inkscape:window-y="0"
     inkscape:window-maximized="1"
     inkscape:current-layer="svg4" />
  <path
     fill="#f2f4f8"
     d="m 237.3664,54.309927 c 9.64236,22.2 -21.73913,46.600003 -62.58766,63.600003 -40.84852,16.9 -91.164089,26.4 -124.82468,14.4 -33.485274,-11.9 -50.14025343,-45.300003 -34.537168,-72.300003 15.603087,-26.9 63.639554,-47.4 112.727918,-47.7 49.26367,-0.2 99.75455,19.8 109.22159,42 z"
     id="path2"
     style="stroke-width:1.32407" />
</svg>
