<?xml version="1.0" encoding="UTF-8" standalone="no"?>
<svg viewBox="0 0 200 200" xmlns="http://www.w3.org/2000/svg">
  <path fill="#FF0066" d="M60.2,-24.9C66.7,0.4,52.8,27,33.6,39.3C14.5,51.5,-10,49.5,-25.4,37.7C-40.7,25.9,-47,4.3,-41.2,-20C-35.5,-44.3,-17.7,-71.3,4.6,-72.8C26.9,-74.2,53.7,-50.2,60.2,-24.9Z" transform="translate(100 100)"/>
</svg>